Copyright 1986-2019 Xilinx, Inc. All Rights Reserved.
-----------------------------------------------------------------------------------------------
| Tool Version : Vivado v.2019.2 (lin64) Build 2708876 Wed Nov  6 21:39:14 MST 2019
| Date         : Fri Dec  2 10:18:57 2022
| Host         : jhon-Aspire-A315-41G running 64-bit Ubuntu 18.04.6 LTS
| Command      : report_utilization -hierarchical -file top_utilization_hierarchical_place.rpt
| Design       : top
| Device       : 7z020clg400-1
| Design State : Fully Placed
-----------------------------------------------------------------------------------------------

Utilization Design Information

Table of Contents
-----------------
1. Utilization by Hierarchy

1. Utilization by Hierarchy
---------------------------

+----------------------------+------------------+------------+------------+---------+------+------+--------+--------+--------------+
|          Instance          |      Module      | Total LUTs | Logic LUTs | LUTRAMs | SRLs |  FFs | RAMB36 | RAMB18 | DSP48 Blocks |
+----------------------------+------------------+------------+------------+---------+------+------+--------+--------+--------------+
| top                        |            (top) |       2743 |       2727 |      16 |    0 | 2345 |    106 |      8 |            4 |
|   (top)                    |            (top) |        190 |        174 |      16 |    0 |  732 |     18 |      0 |            0 |
|   RTC                      |              RTC |         42 |         42 |       0 |    0 |   65 |      0 |      0 |            0 |
|   SPI                      |              SPI |         58 |         58 |       0 |    0 |   41 |      0 |      0 |            0 |
|     (SPI)                  |              SPI |          0 |          0 |       0 |    0 |    8 |      0 |      0 |            0 |
|     spi                    |          SPI_phy |         58 |         58 |       0 |    0 |   33 |      0 |      0 |            0 |
|   VexRiscv                 |         VexRiscv |       2072 |       2072 |       0 |    0 | 1269 |      1 |      8 |            4 |
|     (VexRiscv)             |         VexRiscv |        841 |        841 |       0 |    0 | 1082 |      0 |      2 |            4 |
|     IBusCachedPlugin_cache | InstructionCache |        720 |        720 |       0 |    0 |  106 |      1 |      1 |            0 |
|     dataCache_1            |        DataCache |        523 |        523 |       0 |    0 |   81 |      0 |      5 |            0 |
|   cam_read                 |         cam_read |         54 |         54 |       0 |    0 |   90 |      0 |      0 |            0 |
|   frame_buffer             |     frame_buffer |        112 |        112 |       0 |    0 |   17 |     45 |      0 |            0 |
|     (frame_buffer)         |     frame_buffer |          4 |          4 |       0 |    0 |   11 |      0 |      0 |            0 |
|     FF2_sync1              |       FF2_sync_2 |          7 |          7 |       0 |    0 |    2 |      0 |      0 |            0 |
|     FF2_sync2              |       FF2_sync_3 |          4 |          4 |       0 |    0 |    2 |      0 |      0 |            0 |
|     mem                    |   frame_memory_4 |         97 |         97 |       0 |    0 |    2 |     45 |      0 |            0 |
|   frame_buffer_1           |   frame_buffer_0 |         65 |         65 |       0 |    0 |   18 |     42 |      0 |            0 |
|     (frame_buffer_1)       |   frame_buffer_0 |          4 |          4 |       0 |    0 |   11 |      0 |      0 |            0 |
|     FF2_sync1              |         FF2_sync |          7 |          7 |       0 |    0 |    2 |      0 |      0 |            0 |
|     FF2_sync2              |       FF2_sync_1 |          4 |          4 |       0 |    0 |    2 |      0 |      0 |            0 |
|     mem                    |     frame_memory |         50 |         50 |       0 |    0 |    3 |     42 |      0 |            0 |
|   preprocessor             |     preprocessor |        166 |        166 |       0 |    0 |  113 |      0 |      0 |            0 |
|     (preprocessor)         |     preprocessor |        158 |        158 |       0 |    0 |  103 |      0 |      0 |            0 |
|     reader                 |    buffer_reader |          4 |          4 |       0 |    0 |    5 |      0 |      0 |            0 |
|     writer                 |    buffer_writer |          4 |          4 |       0 |    0 |    5 |      0 |      0 |            0 |
+----------------------------+------------------+------------+------------+---------+------+------+--------+--------+--------------+
* Note: The sum of lower-level cells may be larger than their parent cells total, due to cross-hierarchy LUT combining


