Copyright 1986-2019 Xilinx, Inc. All Rights Reserved.
------------------------------------------------------------------------------------
| Tool Version : Vivado v.2019.2 (lin64) Build 2708876 Wed Nov  6 21:39:14 MST 2019
| Date         : Fri Dec  2 10:18:07 2022
| Host         : jhon-Aspire-A315-41G running 64-bit Ubuntu 18.04.6 LTS
| Command      : report_timing_summary -file top_timing_synth.rpt
| Design       : top
| Device       : 7z020-clg400
| Speed File   : -1  PRODUCTION 1.11 2014-09-11
------------------------------------------------------------------------------------

Timing Summary Report

------------------------------------------------------------------------------------------------
| Timer Settings
| --------------
------------------------------------------------------------------------------------------------

  Enable Multi Corner Analysis               :  Yes
  Enable Pessimism Removal                   :  Yes
  Pessimism Removal Resolution               :  Nearest Common Node
  Enable Input Delay Default Clock           :  No
  Enable Preset / Clear Arcs                 :  No
  Disable Flight Delays                      :  No
  Ignore I/O Paths                           :  No
  Timing Early Launch at Borrowing Latches   :  No
  Borrow Time for Max Delay Exceptions       :  Yes
  Merge Timing Exceptions                    :  Yes

  Corner  Analyze    Analyze    
  Name    Max Paths  Min Paths  
  ------  ---------  ---------  
  Slow    Yes        Yes        
  Fast    Yes        Yes        



check_timing report

Table of Contents
-----------------
1. checking no_clock
2. checking constant_clock
3. checking pulse_width_clock
4. checking unconstrained_internal_endpoints
5. checking no_input_delay
6. checking no_output_delay
7. checking multiple_clock
8. checking generated_clocks
9. checking loops
10. checking partial_input_delay
11. checking partial_output_delay
12. checking latch_loops

1. checking no_clock
--------------------
 There are 84 register/latch pins with no clock driven by root clock pin: cam_read/px_clk_reg/Q (HIGH)

 There are 44 register/latch pins with no clock driven by root clock pin: main_prep_buffer_read_clk_reg_storage_reg/Q (HIGH)


2. checking constant_clock
--------------------------
 There are 0 register/latch pins with constant_clock.


3. checking pulse_width_clock
-----------------------------
 There are 0 register/latch pins which need pulse_width check


4. checking unconstrained_internal_endpoints
--------------------------------------------
 There are 1755 pins that are not constrained for maximum delay. (HIGH)

 There are 0 pins that are not constrained for maximum delay due to constant clock.


5. checking no_input_delay
--------------------------
 There are 17 input ports with no input delay specified. (HIGH)

 There are 0 input ports with no input delay but user has a false path constraint.


6. checking no_output_delay
---------------------------
 There are 7 ports with no output delay specified. (HIGH)

 There are 0 ports with no output delay but user has a false path constraint

 There is 1 port with no output delay but with a timing clock defined on it or propagating through it (LOW)


7. checking multiple_clock
--------------------------
 There are 0 register/latch pins with multiple clocks.


8. checking generated_clocks
----------------------------
 There are 0 generated clocks that are not connected to a clock source.


9. checking loops
-----------------
 There are 0 combinational loops in the design.


10. checking partial_input_delay
--------------------------------
 There are 0 input ports with partial input delay specified.


11. checking partial_output_delay
---------------------------------
 There are 0 ports with partial output delay specified.


12. checking latch_loops
------------------------
 There are 0 combinational latch loops in the design through latch input



------------------------------------------------------------------------------------------------
| Design Timing Summary
| ---------------------
------------------------------------------------------------------------------------------------

    WNS(ns)      TNS(ns)  TNS Failing Endpoints  TNS Total Endpoints      WHS(ns)      THS(ns)  THS Failing Endpoints  THS Total Endpoints     WPWS(ns)     TPWS(ns)  TPWS Failing Endpoints  TPWS Total Endpoints  
    -------      -------  ---------------------  -------------------      -------      -------  ---------------------  -------------------     --------     --------  ----------------------  --------------------  
     -0.889       -0.889                      1                 7635        0.045        0.000                      0                 7635        2.750        0.000                       0                  2451  


Timing constraints are not met.


------------------------------------------------------------------------------------------------
| Clock Summary
| -------------
------------------------------------------------------------------------------------------------

Clock     Waveform(ns)         Period(ns)      Frequency(MHz)
-----     ------------         ----------      --------------
app1_clk  {0.000 31.000}       62.000          16.129          
app2_clk  {0.000 20.000}       40.000          25.000          
app3_clk  {0.000 62.500}       125.000         8.000           
pclk_clk  {0.000 62.500}       125.000         8.000           
sys_clk   {0.000 4.000}        8.000           125.000         


------------------------------------------------------------------------------------------------
| Intra Clock Table
| -----------------
------------------------------------------------------------------------------------------------

Clock             WNS(ns)      TNS(ns)  TNS Failing Endpoints  TNS Total Endpoints      WHS(ns)      THS(ns)  THS Failing Endpoints  THS Total Endpoints     WPWS(ns)     TPWS(ns)  TPWS Failing Endpoints  TPWS Total Endpoints  
-----             -------      -------  ---------------------  -------------------      -------      -------  ---------------------  -------------------     --------     --------  ----------------------  --------------------  
pclk_clk            1.086        0.000                      0                   84        0.045        0.000                      0                   84       62.000        0.000                       0                    53  
sys_clk            -0.889       -0.889                      1                 7354        0.045        0.000                      0                 7354        2.750        0.000                       0                  2398  


------------------------------------------------------------------------------------------------
| Inter Clock Table
| -----------------
------------------------------------------------------------------------------------------------

From Clock    To Clock          WNS(ns)      TNS(ns)  TNS Failing Endpoints  TNS Total Endpoints      WHS(ns)      THS(ns)  THS Failing Endpoints  THS Total Endpoints  
----------    --------          -------      -------  ---------------------  -------------------      -------      -------  ---------------------  -------------------  


------------------------------------------------------------------------------------------------
| Other Path Groups Table
| -----------------------
------------------------------------------------------------------------------------------------

Path Group         From Clock         To Clock               WNS(ns)      TNS(ns)  TNS Failing Endpoints  TNS Total Endpoints      WHS(ns)      THS(ns)  THS Failing Endpoints  THS Total Endpoints  
----------         ----------         --------               -------      -------  ---------------------  -------------------      -------      -------  ---------------------  -------------------  
**async_default**  pclk_clk           pclk_clk                60.890        0.000                      0                   51        0.325        0.000                      0                   51  
**async_default**  sys_clk            sys_clk                  2.263        0.000                      0                  146        0.347        0.000                      0                  146  


------------------------------------------------------------------------------------------------
| Timing Details
| --------------
------------------------------------------------------------------------------------------------


---------------------------------------------------------------------------------------------------
From Clock:  pclk_clk
  To Clock:  pclk_clk

Setup :            0  Failing Endpoints,  Worst Slack        1.086ns,  Total Violation        0.000ns
Hold  :            0  Failing Endpoints,  Worst Slack        0.045ns,  Total Violation        0.000ns
PW    :            0  Failing Endpoints,  Worst Slack       62.000ns,  Total Violation        0.000ns
---------------------------------------------------------------------------------------------------


Max Delay Paths
--------------------------------------------------------------------------------------
Slack (MET) :             1.086ns  (required time - arrival time)
  Source:                 FDPE/C
                            (rising edge-triggered cell FDPE clocked by pclk_clk  {rise@0.000ns fall@62.500ns period=125.000ns})
  Destination:            FDPE_1/D
                            (rising edge-triggered cell FDPE clocked by pclk_clk  {rise@0.000ns fall@62.500ns period=125.000ns})
  Path Group:             pclk_clk
  Path Type:              Setup (Max at Slow Process Corner)
  Requirement:            2.000ns  (MaxDelay Path 2.000ns)
  Data Path Delay:        0.670ns  (logic 0.478ns (71.343%)  route 0.192ns (28.657%))
  Logic Levels:           0  
  Clock Path Skew:        -0.145ns (DCD - SCD + CPR)
    Destination Clock Delay (DCD):    0.439ns
    Source Clock Delay      (SCD):    0.584ns
    Clock Pessimism Removal (CPR):    0.000ns
  Clock Uncertainty:      0.035ns  ((TSJ^2 + TIJ^2)^1/2 + DJ) / 2 + PE
    Total System Jitter     (TSJ):    0.071ns
    Total Input Jitter      (TIJ):    0.000ns
    Discrete Jitter          (DJ):    0.000ns
    Phase Error              (PE):    0.000ns
  Timing Exception:       MaxDelay Path 2.000ns

    Location             Delay type                Incr(ns)  Path(ns)    Netlist Resource(s)
  -------------------------------------------------------------------    -------------------
                         (clock pclk_clk rise edge)
                                                      0.000     0.000 r  
                         BUFG                         0.000     0.000 r  pclk_IBUF_BUFG_inst/O
                         net (fo=53, unplaced)        0.584     0.584    pclk_clk
                         FDPE                                         r  FDPE/C
  -------------------------------------------------------------------    -------------------
                         FDPE (Prop_fdpe_C_Q)         0.478     1.062 r  FDPE/Q
                         net (fo=1, unplaced)         0.192     1.254    main_crg_cd_pclk_rstsync_rst_meta
                         FDPE                                         r  FDPE_1/D
  -------------------------------------------------------------------    -------------------

                         max delay                    2.000     2.000    
                         BUFG                         0.000     2.000 r  pclk_IBUF_BUFG_inst/O
                         net (fo=53, unplaced)        0.439     2.439    pclk_clk
                         FDPE                                         r  FDPE_1/C
                         clock pessimism              0.000     2.439    
                         clock uncertainty           -0.035     2.404    
                         FDPE (Setup_fdpe_C_D)       -0.064     2.340    FDPE_1
  -------------------------------------------------------------------
                         required time                          2.340    
                         arrival time                          -1.254    
  -------------------------------------------------------------------
                         slack                                  1.086    





Min Delay Paths
--------------------------------------------------------------------------------------
Slack (MET) :             0.045ns  (arrival time - required time)
  Source:                 FDPE/C
                            (rising edge-triggered cell FDPE clocked by pclk_clk  {rise@0.000ns fall@62.500ns period=125.000ns})
  Destination:            FDPE_1/D
                            (rising edge-triggered cell FDPE clocked by pclk_clk  {rise@0.000ns fall@62.500ns period=125.000ns})
  Path Group:             pclk_clk
  Path Type:              Hold (Min at Fast Process Corner)
  Requirement:            0.000ns  (pclk_clk rise@0.000ns - pclk_clk rise@0.000ns)
  Data Path Delay:        0.228ns  (logic 0.147ns (64.493%)  route 0.081ns (35.507%))
  Logic Levels:           0  
  Clock Path Skew:        0.145ns (DCD - SCD - CPR)
    Destination Clock Delay (DCD):    0.259ns
    Source Clock Delay      (SCD):    0.114ns
    Clock Pessimism Removal (CPR):    -0.000ns

    Location             Delay type                Incr(ns)  Path(ns)    Netlist Resource(s)
  -------------------------------------------------------------------    -------------------
                         (clock pclk_clk rise edge)
                                                      0.000     0.000 r  
                         BUFG                         0.000     0.000 r  pclk_IBUF_BUFG_inst/O
                         net (fo=53, unplaced)        0.114     0.114    pclk_clk
                         FDPE                                         r  FDPE/C
  -------------------------------------------------------------------    -------------------
                         FDPE (Prop_fdpe_C_Q)         0.147     0.261 r  FDPE/Q
                         net (fo=1, unplaced)         0.081     0.342    main_crg_cd_pclk_rstsync_rst_meta
                         FDPE                                         r  FDPE_1/D
  -------------------------------------------------------------------    -------------------

                         (clock pclk_clk rise edge)
                                                      0.000     0.000 r  
                         BUFG                         0.000     0.000 r  pclk_IBUF_BUFG_inst/O
                         net (fo=53, unplaced)        0.259     0.259    pclk_clk
                         FDPE                                         r  FDPE_1/C
                         clock pessimism              0.000     0.259    
                         FDPE (Hold_fdpe_C_D)         0.038     0.297    FDPE_1
  -------------------------------------------------------------------
                         required time                         -0.297    
                         arrival time                           0.342    
  -------------------------------------------------------------------
                         slack                                  0.045    





Pulse Width Checks
--------------------------------------------------------------------------------------
Clock Name:         pclk_clk
Waveform(ns):       { 0.000 62.500 }
Period(ns):         125.000
Sources:            { pclk_IBUF_BUFG_inst/O }

Check Type        Corner  Lib Pin  Reference Pin  Required(ns)  Actual(ns)  Slack(ns)  Location  Pin
Min Period        n/a     FDPE/C   n/a            1.000         125.000     124.000              FDPE/C
Low Pulse Width   Slow    FDPE/C   n/a            0.500         62.500      62.000               FDPE/C
High Pulse Width  Slow    FDPE/C   n/a            0.500         62.500      62.000               FDPE/C



---------------------------------------------------------------------------------------------------
From Clock:  sys_clk
  To Clock:  sys_clk

Setup :            1  Failing Endpoint ,  Worst Slack       -0.889ns,  Total Violation       -0.889ns
Hold  :            0  Failing Endpoints,  Worst Slack        0.045ns,  Total Violation        0.000ns
PW    :            0  Failing Endpoints,  Worst Slack        2.750ns,  Total Violation        0.000ns
---------------------------------------------------------------------------------------------------


Max Delay Paths
--------------------------------------------------------------------------------------
Slack (VIOLATED) :        -0.889ns  (required time - arrival time)
  Source:                 main_SPI_prescaler_reg_storage_reg[4]/C
                            (rising edge-triggered cell FDRE clocked by sys_clk  {rise@0.000ns fall@4.000ns period=8.000ns})
  Destination:            SPI/spi/clock_enable_reg/D
                            (falling edge-triggered cell FDCE clocked by sys_clk  {rise@0.000ns fall@4.000ns period=8.000ns})
  Path Group:             sys_clk
  Path Type:              Setup (Max at Slow Process Corner)
  Requirement:            4.000ns  (sys_clk fall@4.000ns - sys_clk rise@0.000ns)
  Data Path Delay:        4.722ns  (logic 2.502ns (52.986%)  route 2.220ns (47.014%))
  Logic Levels:           6  (CARRY4=4 LUT2=1 LUT4=1)
  Clock Path Skew:        -0.145ns (DCD - SCD + CPR)
    Destination Clock Delay (DCD):    0.439ns = ( 4.439 - 4.000 ) 
    Source Clock Delay      (SCD):    0.584ns
    Clock Pessimism Removal (CPR):    0.000ns
  Clock Uncertainty:      0.069ns  ((TSJ^2 + DJ^2)^1/2) / 2 + PE
    Total System Jitter     (TSJ):    0.071ns
    Discrete Jitter          (DJ):    0.118ns
    Phase Error              (PE):    0.000ns

    Location             Delay type                Incr(ns)  Path(ns)    Netlist Resource(s)
  -------------------------------------------------------------------    -------------------
                         (clock sys_clk rise edge)    0.000     0.000 r  
                         BUFG                         0.000     0.000 r  BUFG/O
                         net (fo=2398, unplaced)      0.584     0.584    sys_clk
                         FDRE                                         r  main_SPI_prescaler_reg_storage_reg[4]/C
  -------------------------------------------------------------------    -------------------
                         FDRE (Prop_fdre_C_Q)         0.478     1.062 r  main_SPI_prescaler_reg_storage_reg[4]/Q
                         net (fo=3, unplaced)         0.664     1.726    SPI/spi/Q[4]
                         CARRY4 (Prop_carry4_DI[3]_CO[3])
                                                      0.567     2.293 r  SPI/spi/out_clock1_carry/CO[3]
                         net (fo=1, unplaced)         0.009     2.302    SPI/spi/out_clock1_carry_n_0
                         CARRY4 (Prop_carry4_CI_CO[3])
                                                      0.117     2.419 r  SPI/spi/out_clock1_carry__0/CO[3]
                         net (fo=1, unplaced)         0.000     2.419    SPI/spi/out_clock1_carry__0_n_0
                         CARRY4 (Prop_carry4_CI_O[1])
                                                      0.337     2.756 f  SPI/spi/out_clock1_carry__1/O[1]
                         net (fo=3, unplaced)         0.629     3.385    SPI/spi/out_clock1[10]
                         LUT4 (Prop_lut4_I1_O)        0.332     3.717 r  SPI/spi/clock_enable1_carry__0_i_3/O
                         net (fo=1, unplaced)         0.000     3.717    SPI/spi/clock_enable1_carry__0_i_3_n_0
                         CARRY4 (Prop_carry4_DI[1]_CO[3])
                                                      0.547     4.264 r  SPI/spi/clock_enable1_carry__0/CO[3]
                         net (fo=1, unplaced)         0.918     5.182    SPI/spi/clock_enable1
                         LUT2 (Prop_lut2_I1_O)        0.124     5.306 r  SPI/spi/clock_enable_i_1/O
                         net (fo=1, unplaced)         0.000     5.306    SPI/spi/clock_enable2_out
                         FDCE                                         r  SPI/spi/clock_enable_reg/D
  -------------------------------------------------------------------    -------------------

                         (clock sys_clk fall edge)    4.000     4.000 f  
                         BUFG                         0.000     4.000 f  BUFG/O
                         net (fo=2398, unplaced)      0.439     4.439    SPI/spi/out
                         FDCE                                         r  SPI/spi/clock_enable_reg/C  (IS_INVERTED)
                         clock pessimism              0.000     4.439    
                         clock uncertainty           -0.069     4.370    
                         FDCE (Setup_fdce_C_D)        0.047     4.417    SPI/spi/clock_enable_reg
  -------------------------------------------------------------------
                         required time                          4.417    
                         arrival time                          -5.306    
  -------------------------------------------------------------------
                         slack                                 -0.889    





Min Delay Paths
--------------------------------------------------------------------------------------
Slack (MET) :             0.045ns  (arrival time - required time)
  Source:                 FDPE_2/C
                            (rising edge-triggered cell FDPE clocked by sys_clk  {rise@0.000ns fall@4.000ns period=8.000ns})
  Destination:            FDPE_3/D
                            (rising edge-triggered cell FDPE clocked by sys_clk  {rise@0.000ns fall@4.000ns period=8.000ns})
  Path Group:             sys_clk
  Path Type:              Hold (Min at Fast Process Corner)
  Requirement:            0.000ns  (sys_clk rise@0.000ns - sys_clk rise@0.000ns)
  Data Path Delay:        0.228ns  (logic 0.147ns (64.493%)  route 0.081ns (35.507%))
  Logic Levels:           0  
  Clock Path Skew:        0.145ns (DCD - SCD - CPR)
    Destination Clock Delay (DCD):    0.259ns
    Source Clock Delay      (SCD):    0.114ns
    Clock Pessimism Removal (CPR):    -0.000ns

    Location             Delay type                Incr(ns)  Path(ns)    Netlist Resource(s)
  -------------------------------------------------------------------    -------------------
                         (clock sys_clk rise edge)    0.000     0.000 r  
                         BUFG                         0.000     0.000 r  BUFG/O
                         net (fo=2398, unplaced)      0.114     0.114    sys_clk
                         FDPE                                         r  FDPE_2/C
  -------------------------------------------------------------------    -------------------
                         FDPE (Prop_fdpe_C_Q)         0.147     0.261 r  FDPE_2/Q
                         net (fo=1, unplaced)         0.081     0.342    main_crg_cd_sys_rstsync_rst_meta
                         FDPE                                         r  FDPE_3/D
  -------------------------------------------------------------------    -------------------

                         (clock sys_clk rise edge)    0.000     0.000 r  
                         BUFG                         0.000     0.000 r  BUFG/O
                         net (fo=2398, unplaced)      0.259     0.259    sys_clk
                         FDPE                                         r  FDPE_3/C
                         clock pessimism              0.000     0.259    
                         FDPE (Hold_fdpe_C_D)         0.038     0.297    FDPE_3
  -------------------------------------------------------------------
                         required time                         -0.297    
                         arrival time                           0.342    
  -------------------------------------------------------------------
                         slack                                  0.045    





Pulse Width Checks
--------------------------------------------------------------------------------------
Clock Name:         sys_clk
Waveform(ns):       { 0.000 4.000 }
Period(ns):         8.000
Sources:            { BUFG/O }

Check Type        Corner  Lib Pin             Reference Pin  Required(ns)  Actual(ns)  Slack(ns)  Location  Pin
Min Period        n/a     RAMB36E1/CLKARDCLK  n/a            2.944         8.000       5.056                VexRiscv/IBusCachedPlugin_cache/banks_0_reg/CLKARDCLK
Low Pulse Width   Slow    RAMD32/CLK          n/a            1.250         4.000       2.750                storage_1_reg_0_15_0_5/RAMA/CLK
High Pulse Width  Slow    RAMD32/CLK          n/a            1.250         4.000       2.750                storage_1_reg_0_15_0_5/RAMA/CLK



---------------------------------------------------------------------------------------------------
Path Group:  **async_default**
From Clock:  pclk_clk
  To Clock:  pclk_clk

Setup :            0  Failing Endpoints,  Worst Slack       60.890ns,  Total Violation        0.000ns
Hold  :            0  Failing Endpoints,  Worst Slack        0.325ns,  Total Violation        0.000ns
---------------------------------------------------------------------------------------------------


Max Delay Paths
--------------------------------------------------------------------------------------
Slack (MET) :             60.890ns  (required time - arrival time)
  Source:                 FDPE_1/C
                            (rising edge-triggered cell FDPE clocked by pclk_clk  {rise@0.000ns fall@62.500ns period=125.000ns})
  Destination:            cam_read/blue_px_data_reg[0]/CLR
                            (recovery check against rising-edge clock pclk_clk  {rise@0.000ns fall@62.500ns period=125.000ns})
  Path Group:             **async_default**
  Path Type:              Recovery (Max at Slow Process Corner)
  Requirement:            62.500ns  (pclk_clk fall@62.500ns - pclk_clk rise@0.000ns)
  Data Path Delay:        0.910ns  (logic 0.478ns (52.527%)  route 0.432ns (47.473%))
  Logic Levels:           0  
  Clock Path Skew:        -0.145ns (DCD - SCD + CPR)
    Destination Clock Delay (DCD):    0.439ns = ( 62.939 - 62.500 ) 
    Source Clock Delay      (SCD):    0.584ns
    Clock Pessimism Removal (CPR):    0.000ns
  Clock Uncertainty:      0.035ns  ((TSJ^2 + TIJ^2)^1/2 + DJ) / 2 + PE
    Total System Jitter     (TSJ):    0.071ns
    Total Input Jitter      (TIJ):    0.000ns
    Discrete Jitter          (DJ):    0.000ns
    Phase Error              (PE):    0.000ns

    Location             Delay type                Incr(ns)  Path(ns)    Netlist Resource(s)
  -------------------------------------------------------------------    -------------------
                         (clock pclk_clk rise edge)
                                                      0.000     0.000 r  
                         BUFG                         0.000     0.000 r  pclk_IBUF_BUFG_inst/O
                         net (fo=53, unplaced)        0.584     0.584    pclk_clk
                         FDPE                                         r  FDPE_1/C
  -------------------------------------------------------------------    -------------------
                         FDPE (Prop_fdpe_C_Q)         0.478     1.062 f  FDPE_1/Q
                         net (fo=65, unplaced)        0.432     1.494    cam_read/pclk_rst
                         FDCE                                         f  cam_read/blue_px_data_reg[0]/CLR
  -------------------------------------------------------------------    -------------------

                         (clock pclk_clk fall edge)
                                                     62.500    62.500 f  
                         BUFG                         0.000    62.500 f  pclk_IBUF_BUFG_inst/O
                         net (fo=53, unplaced)        0.439    62.939    cam_read/CLK
                         FDCE                                         r  cam_read/blue_px_data_reg[0]/C  (IS_INVERTED)
                         clock pessimism              0.000    62.939    
                         clock uncertainty           -0.035    62.904    
                         FDCE (Recov_fdce_C_CLR)     -0.520    62.384    cam_read/blue_px_data_reg[0]
  -------------------------------------------------------------------
                         required time                         62.384    
                         arrival time                          -1.494    
  -------------------------------------------------------------------
                         slack                                 60.890    





Min Delay Paths
--------------------------------------------------------------------------------------
Slack (MET) :             0.325ns  (arrival time - required time)
  Source:                 FDPE_1/C
                            (rising edge-triggered cell FDPE clocked by pclk_clk  {rise@0.000ns fall@62.500ns period=125.000ns})
  Destination:            cam_read/VGA_sync_reg/CLR
                            (removal check against rising-edge clock pclk_clk  {rise@0.000ns fall@62.500ns period=125.000ns})
  Path Group:             **async_default**
  Path Type:              Removal (Min at Fast Process Corner)
  Requirement:            0.000ns  (pclk_clk rise@0.000ns - pclk_clk rise@0.000ns)
  Data Path Delay:        0.329ns  (logic 0.147ns (44.668%)  route 0.182ns (55.332%))
  Logic Levels:           0  
  Clock Path Skew:        0.145ns (DCD - SCD - CPR)
    Destination Clock Delay (DCD):    0.259ns
    Source Clock Delay      (SCD):    0.114ns
    Clock Pessimism Removal (CPR):    -0.000ns

    Location             Delay type                Incr(ns)  Path(ns)    Netlist Resource(s)
  -------------------------------------------------------------------    -------------------
                         (clock pclk_clk rise edge)
                                                      0.000     0.000 r  
                         BUFG                         0.000     0.000 r  pclk_IBUF_BUFG_inst/O
                         net (fo=53, unplaced)        0.114     0.114    pclk_clk
                         FDPE                                         r  FDPE_1/C
  -------------------------------------------------------------------    -------------------
                         FDPE (Prop_fdpe_C_Q)         0.147     0.261 f  FDPE_1/Q
                         net (fo=65, unplaced)        0.182     0.443    cam_read/pclk_rst
                         FDCE                                         f  cam_read/VGA_sync_reg/CLR
  -------------------------------------------------------------------    -------------------

                         (clock pclk_clk rise edge)
                                                      0.000     0.000 r  
                         BUFG                         0.000     0.000 r  pclk_IBUF_BUFG_inst/O
                         net (fo=53, unplaced)        0.259     0.259    cam_read/CLK
                         FDCE                                         r  cam_read/VGA_sync_reg/C
                         clock pessimism              0.000     0.259    
                         FDCE (Remov_fdce_C_CLR)     -0.141     0.118    cam_read/VGA_sync_reg
  -------------------------------------------------------------------
                         required time                         -0.118    
                         arrival time                           0.443    
  -------------------------------------------------------------------
                         slack                                  0.325    





---------------------------------------------------------------------------------------------------
Path Group:  **async_default**
From Clock:  sys_clk
  To Clock:  sys_clk

Setup :            0  Failing Endpoints,  Worst Slack        2.263ns,  Total Violation        0.000ns
Hold  :            0  Failing Endpoints,  Worst Slack        0.347ns,  Total Violation        0.000ns
---------------------------------------------------------------------------------------------------


Max Delay Paths
--------------------------------------------------------------------------------------
Slack (MET) :             2.263ns  (required time - arrival time)
  Source:                 FDPE_3/C
                            (rising edge-triggered cell FDPE clocked by sys_clk  {rise@0.000ns fall@4.000ns period=8.000ns})
  Destination:            SPI/spi/CS_reg/PRE
                            (recovery check against rising-edge clock sys_clk  {rise@0.000ns fall@4.000ns period=8.000ns})
  Path Group:             **async_default**
  Path Type:              Recovery (Max at Slow Process Corner)
  Requirement:            4.000ns  (sys_clk fall@4.000ns - sys_clk rise@0.000ns)
  Data Path Delay:        0.961ns  (logic 0.478ns (49.740%)  route 0.483ns (50.260%))
  Logic Levels:           0  
  Clock Path Skew:        -0.145ns (DCD - SCD + CPR)
    Destination Clock Delay (DCD):    0.439ns = ( 4.439 - 4.000 ) 
    Source Clock Delay      (SCD):    0.584ns
    Clock Pessimism Removal (CPR):    0.000ns
  Clock Uncertainty:      0.069ns  ((TSJ^2 + DJ^2)^1/2) / 2 + PE
    Total System Jitter     (TSJ):    0.071ns
    Discrete Jitter          (DJ):    0.118ns
    Phase Error              (PE):    0.000ns

    Location             Delay type                Incr(ns)  Path(ns)    Netlist Resource(s)
  -------------------------------------------------------------------    -------------------
                         (clock sys_clk rise edge)    0.000     0.000 r  
                         BUFG                         0.000     0.000 r  BUFG/O
                         net (fo=2398, unplaced)      0.584     0.584    sys_clk
                         FDPE                                         r  FDPE_3/C
  -------------------------------------------------------------------    -------------------
                         FDPE (Prop_fdpe_C_Q)         0.478     1.062 f  FDPE_3/Q
                         net (fo=666, unplaced)       0.483     1.545    SPI/spi/sys_rst
                         FDPE                                         f  SPI/spi/CS_reg/PRE
  -------------------------------------------------------------------    -------------------

                         (clock sys_clk fall edge)    4.000     4.000 f  
                         BUFG                         0.000     4.000 f  BUFG/O
                         net (fo=2398, unplaced)      0.439     4.439    SPI/spi/out
                         FDPE                                         r  SPI/spi/CS_reg/C  (IS_INVERTED)
                         clock pessimism              0.000     4.439    
                         clock uncertainty           -0.069     4.370    
                         FDPE (Recov_fdpe_C_PRE)     -0.562     3.808    SPI/spi/CS_reg
  -------------------------------------------------------------------
                         required time                          3.808    
                         arrival time                          -1.545    
  -------------------------------------------------------------------
                         slack                                  2.263    





Min Delay Paths
--------------------------------------------------------------------------------------
Slack (MET) :             0.347ns  (arrival time - required time)
  Source:                 FDPE_3/C
                            (rising edge-triggered cell FDPE clocked by sys_clk  {rise@0.000ns fall@4.000ns period=8.000ns})
  Destination:            RTC/clock_1KHz_enable_reg/CLR
                            (removal check against rising-edge clock sys_clk  {rise@0.000ns fall@4.000ns period=8.000ns})
  Path Group:             **async_default**
  Path Type:              Removal (Min at Fast Process Corner)
  Requirement:            0.000ns  (sys_clk rise@0.000ns - sys_clk rise@0.000ns)
  Data Path Delay:        0.351ns  (logic 0.147ns (41.929%)  route 0.204ns (58.071%))
  Logic Levels:           0  
  Clock Path Skew:        0.145ns (DCD - SCD - CPR)
    Destination Clock Delay (DCD):    0.259ns
    Source Clock Delay      (SCD):    0.114ns
    Clock Pessimism Removal (CPR):    -0.000ns

    Location             Delay type                Incr(ns)  Path(ns)    Netlist Resource(s)
  -------------------------------------------------------------------    -------------------
                         (clock sys_clk rise edge)    0.000     0.000 r  
                         BUFG                         0.000     0.000 r  BUFG/O
                         net (fo=2398, unplaced)      0.114     0.114    sys_clk
                         FDPE                                         r  FDPE_3/C
  -------------------------------------------------------------------    -------------------
                         FDPE (Prop_fdpe_C_Q)         0.147     0.261 f  FDPE_3/Q
                         net (fo=666, unplaced)       0.204     0.465    RTC/sys_rst
                         FDCE                                         f  RTC/clock_1KHz_enable_reg/CLR
  -------------------------------------------------------------------    -------------------

                         (clock sys_clk rise edge)    0.000     0.000 r  
                         BUFG                         0.000     0.000 r  BUFG/O
                         net (fo=2398, unplaced)      0.259     0.259    RTC/out
                         FDCE                                         r  RTC/clock_1KHz_enable_reg/C
                         clock pessimism              0.000     0.259    
                         FDCE (Remov_fdce_C_CLR)     -0.141     0.118    RTC/clock_1KHz_enable_reg
  -------------------------------------------------------------------
                         required time                         -0.118    
                         arrival time                           0.465    
  -------------------------------------------------------------------
                         slack                                  0.347    





